-----BEGIN PGP SIGNATURE-----

iHUEABYIAB0WIQRLSiy56hzPvq1pYJruVLzHiGEHrgUCYwatSgAKCRDuVLzHiGEH
rsRxAP40C90z6Z5PaF5aVrz2Mfwy2hyY7aSaHJNuH/mCVrkY3wD+OfEwksLzz8cd
Ro36M4M/QyGpu1/oJQVc5xn0C4MtqAU=
=WBmb
-----END PGP SIGNATURE-----
